Statistics and Data Science Applications for Engineers
…
---
class: title-slide, top, left, inverse
background-image: url("img/tsf2.png")
background-size: contain

---

## 10, 826 time series

## 25 features

```
# A tibble: 10,826 × 25
   entropy lumpiness stability hurst trend spikiness linearity curvature  e_acf1
     <dbl>     <dbl>     <dbl> <dbl> <dbl>     <dbl>     <dbl>     <dbl>   <dbl>
 1   0.683   0.0400      0.977 0.985 0.985   1.32e-6      4.46    0.705  -0.0603
 2   0.711   0.0790      0.894 0.988 0.989   1.54e-6      4.47    0.613   0.272 
 3   0.716   0.0160      0.858 0.987 0.989   1.13e-6      4.60    0.695   0.172 
 4   0.761   0.00201     1.32  0.982 0.957   8.96e-6      4.48    0.0735 -0.396 
 5   0.628   0.00112     0.446 0.993 0.973   1.80e-6      5.77    1.21    0.0113
 6   0.708   0.00774     0.578 0.986 0.975   3.31e-6      4.75    0.748  -0.385 
 7   0.870   0           0     0.943 0.975   4.95e-6      2.94    0.391   0.0868
 8   0.897   0           0     0.949 0.978   2.39e-6      3.11   -0.360   0.220 
 9   0.890   0           0     0.931 0.983   5.09e-6      2.74    0.381   0.198 
10   0.695   0.0188      1.05  0.987 0.956   8.44e-6      4.70   -1.57    0.445 
# ℹ 10,816 more rows
# ℹ 16 more variables: y_acf1 <dbl>, diff1y_acf1 <dbl>, diff2y_acf1 <dbl>,
#   y_pacf5 <dbl>, diff1y_pacf5 <dbl>, diff2y_pacf5 <dbl>, nonlinearity <dbl>,
#   lmres_acf1 <dbl>, ur_pp <dbl>, ur_kpss <dbl>, N <int>, y_acf5 <dbl>,
#   diff1y_acf5 <dbl>, diff2y_acf5 <dbl>, alpha <dbl>, beta <dbl>
```
…
